^C:\USERS\MAGSHIMIM\H.W.-LESSON-09\H.W. LESSON 09\H.W. LESSON 09\MAIN2.CPP
/c /ZI /JMC /nologo /W4 /WX- /diagnostics:column /sdl /Od /Oy- /D _DEBUG /D _CONSOLE /D _CRT_SECURE_NO_WARNINGS /D _UNICODE /D UNICODE /Gm- /EHsc /RTC1 /MDd /GS /fp:precise /permissive- /Zc:wchar_t /Zc:forScope /Zc:inline /Fo"DEBUG\\" /Fd"DEBUG\VC142.PDB" /Gd /TP /analyze- /FC C:\USERS\MAGSHIMIM\H.W.-LESSON-09\H.W. LESSON 09\H.W. LESSON 09\MAIN2.CPP
^C:\USERS\MAGSHIMIM\H.W.-LESSON-09\H.W. LESSON 09\H.W. LESSON 09\BSNODE.CPP
/c /ZI /JMC /nologo /W4 /WX- /diagnostics:column /sdl /Od /Oy- /D _DEBUG /D _CONSOLE /D _CRT_SECURE_NO_WARNINGS /D _UNICODE /D UNICODE /Gm- /EHsc /RTC1 /MDd /GS /fp:precise /permissive- /Zc:wchar_t /Zc:forScope /Zc:inline /Fo"DEBUG\\" /Fd"DEBUG\VC142.PDB" /Gd /TP /analyze- /FC C:\USERS\MAGSHIMIM\H.W.-LESSON-09\H.W. LESSON 09\H.W. LESSON 09\BSNODE.CPP
^C:\USERS\MAGSHIMIM\H.W.-LESSON-09\H.W. LESSON 09\H.W. LESSON 09\MAIN.CPP
/c /ZI /JMC /nologo /W4 /WX- /diagnostics:column /sdl /Od /Oy- /D _DEBUG /D _CONSOLE /D _CRT_SECURE_NO_WARNINGS /D _UNICODE /D UNICODE /Gm- /EHsc /RTC1 /MDd /GS /fp:precise /permissive- /Zc:wchar_t /Zc:forScope /Zc:inline /Fo"DEBUG\\" /Fd"DEBUG\VC142.PDB" /Gd /TP /analyze- /FC C:\USERS\MAGSHIMIM\H.W.-LESSON-09\H.W. LESSON 09\H.W. LESSON 09\MAIN.CPP
