^C:\USERS\MAGSHIMIM\H.W.-LESSON-09\H.W. LESSON 09\H.W. LESSON 09\BSNODE.CPP|C:\USERS\MAGSHIMIM\H.W.-LESSON-09\H.W. LESSON 09\H.W. LESSON 09\MAIN.CPP|C:\USERS\MAGSHIMIM\H.W.-LESSON-09\H.W. LESSON 09\H.W. LESSON 09\MAIN2.CPP
C:\USERS\MAGSHIMIM\H.W.-LESSON-09\H.W. LESSON 09\H.W. LESSON 09\DEBUG\VC142.PDB
C:\USERS\MAGSHIMIM\H.W.-LESSON-09\H.W. LESSON 09\H.W. LESSON 09\DEBUG\VC142.IDB
C:\USERS\MAGSHIMIM\H.W.-LESSON-09\H.W. LESSON 09\H.W. LESSON 09\DEBUG\MAIN2.OBJ
C:\USERS\MAGSHIMIM\H.W.-LESSON-09\H.W. LESSON 09\H.W. LESSON 09\DEBUG\MAIN.OBJ
C:\USERS\MAGSHIMIM\H.W.-LESSON-09\H.W. LESSON 09\H.W. LESSON 09\DEBUG\BSNODE.OBJ
^C:\USERS\MAGSHIMIM\H.W.-LESSON-09\H.W. LESSON 09\H.W. LESSON 09\BSNODE.CPP|C:\USERS\MAGSHIMIM\H.W.-LESSON-09\H.W. LESSON 09\H.W. LESSON 09\MAIN2.CPP
C:\USERS\MAGSHIMIM\H.W.-LESSON-09\H.W. LESSON 09\H.W. LESSON 09\DEBUG\VC142.PDB
C:\USERS\MAGSHIMIM\H.W.-LESSON-09\H.W. LESSON 09\H.W. LESSON 09\DEBUG\VC142.IDB
C:\USERS\MAGSHIMIM\H.W.-LESSON-09\H.W. LESSON 09\H.W. LESSON 09\DEBUG\MAIN2.OBJ
^C:\USERS\MAGSHIMIM\H.W.-LESSON-09\H.W. LESSON 09\H.W. LESSON 09\MAIN2.CPP
C:\USERS\MAGSHIMIM\H.W.-LESSON-09\H.W. LESSON 09\H.W. LESSON 09\DEBUG\MAIN2.OBJ
^C:\USERS\MAGSHIMIM\H.W.-LESSON-09\H.W. LESSON 09\H.W. LESSON 09\BSNODE.CPP|C:\USERS\MAGSHIMIM\H.W.-LESSON-09\H.W. LESSON 09\H.W. LESSON 09\MAIN.CPP
C:\USERS\MAGSHIMIM\H.W.-LESSON-09\H.W. LESSON 09\H.W. LESSON 09\DEBUG\VC142.PDB
C:\USERS\MAGSHIMIM\H.W.-LESSON-09\H.W. LESSON 09\H.W. LESSON 09\DEBUG\VC142.IDB
C:\USERS\MAGSHIMIM\H.W.-LESSON-09\H.W. LESSON 09\H.W. LESSON 09\DEBUG\MAIN.OBJ
C:\USERS\MAGSHIMIM\H.W.-LESSON-09\H.W. LESSON 09\H.W. LESSON 09\DEBUG\BSNODE.OBJ
^C:\USERS\MAGSHIMIM\H.W.-LESSON-09\H.W. LESSON 09\H.W. LESSON 09\BSNODE.CPP
C:\USERS\MAGSHIMIM\H.W.-LESSON-09\H.W. LESSON 09\H.W. LESSON 09\DEBUG\VC142.PDB
^C:\USERS\MAGSHIMIM\H.W.-LESSON-09\H.W. LESSON 09\H.W. LESSON 09\MAIN.CPP
C:\USERS\MAGSHIMIM\H.W.-LESSON-09\H.W. LESSON 09\H.W. LESSON 09\DEBUG\VC142.PDB
